[gd_scene load_steps=2 format=2]

[ext_resource path="res://src/Player.gd" type="Script" id=1]

[node name="Player" type="Spatial"]
script = ExtResource( 1 )

[node name="Pawns" type="Node" parent="."]

[node name="PieceTray" type="Node" parent="."]
